<?xml version="1.0" encoding="UTF-8"?>
<svg xmlns="http://www.w3.org/2000/svg" xmlns:xlink="http://www.w3.org/1999/xlink" width="375pt" height="374.999991pt" viewBox="0 0 375 374.999991" version="1.2">
<defs>
<clipPath id="clip1">
  <path d="M 37.5 67.3125 L 337.5 67.3125 L 337.5 261 L 37.5 261 Z M 37.5 67.3125 "/>
</clipPath>
<clipPath id="clip2">
  <path d="M 125 292 L 250 292 L 250 308.0625 L 125 308.0625 Z M 125 292 "/>
</clipPath>
</defs>
<g id="surface1">
<path style=" stroke:none;fill-rule:nonzero;fill:rgb(100%,100%,100%);fill-opacity:1;" d="M 149.042969 263.519531 L 149.042969 289.640625 L 225.953125 289.640625 L 225.953125 263.519531 L 149.042969 263.519531 "/>
<g clip-path="url(#clip1)" clip-rule="nonzero">
<path style=" stroke:none;fill-rule:nonzero;fill:rgb(100%,100%,100%);fill-opacity:1;" d="M 330.832031 238.121094 C 330.832031 238.917969 330.191406 239.566406 329.390625 239.566406 L 45.609375 239.566406 C 44.8125 239.566406 44.167969 238.917969 44.167969 238.121094 L 44.167969 75.894531 C 44.167969 75.097656 44.8125 74.449219 45.609375 74.449219 L 329.390625 74.449219 C 330.191406 74.449219 330.832031 75.097656 330.832031 75.894531 Z M 225.714844 252.308594 C 225.714844 253.105469 225.074219 253.753906 224.273438 253.753906 L 150.726562 253.753906 C 149.929688 253.753906 149.285156 253.105469 149.285156 252.308594 L 149.285156 245.109375 C 149.285156 244.316406 149.929688 243.667969 150.726562 243.667969 L 224.273438 243.667969 C 225.074219 243.667969 225.714844 244.316406 225.714844 245.109375 Z M 327.207031 67.363281 L 47.792969 67.363281 C 42.105469 67.363281 37.476562 72 37.476562 77.699219 L 37.476562 250.296875 C 37.476562 255.996094 42.105469 260.636719 47.792969 260.636719 L 327.207031 260.636719 C 332.898438 260.636719 337.523438 255.996094 337.523438 250.296875 L 337.523438 77.699219 C 337.523438 72 332.898438 67.363281 327.207031 67.363281 "/>
</g>
<g clip-path="url(#clip2)" clip-rule="nonzero">
<path style=" stroke:none;fill-rule:nonzero;fill:rgb(100%,100%,100%);fill-opacity:1;" d="M 125.222656 308.101562 L 249.773438 308.101562 L 249.773438 292.523438 L 125.222656 292.523438 L 125.222656 308.101562 "/>
</g>
</g>
</svg>
